<?xml version="1.0" encoding="UTF-8" standalone="no"?>
<!-- Created with Inkscape (http://www.inkscape.org/) -->

<svg
   xmlns:dc="http://purl.org/dc/elements/1.1/"
   xmlns:cc="http://creativecommons.org/ns#"
   xmlns:rdf="http://www.w3.org/1999/02/22-rdf-syntax-ns#"
   xmlns:svg="http://www.w3.org/2000/svg"
   xmlns="http://www.w3.org/2000/svg"
   xmlns:sodipodi="http://sodipodi.sourceforge.net/DTD/sodipodi-0.dtd"
   xmlns:inkscape="http://www.inkscape.org/namespaces/inkscape"
   width="1024"
   height="500"
   viewBox="0 0 270.93333 132.29167"
   version="1.1"
   id="svg882"
   inkscape:version="0.92.4 5da689c313, 2019-01-14"
   sodipodi:docname="feature.svg"
   inkscape:export-filename="/home/kyle/Downloads/feature.png"
   inkscape:export-xdpi="96"
   inkscape:export-ydpi="96">
  <defs
     id="defs876" />
  <sodipodi:namedview
     id="base"
     pagecolor="#ffffff"
     bordercolor="#666666"
     borderopacity="1.0"
     inkscape:pageopacity="0.0"
     inkscape:pageshadow="2"
     inkscape:zoom="0.49497475"
     inkscape:cx="590.15487"
     inkscape:cy="168.99021"
     inkscape:document-units="mm"
     inkscape:current-layer="layer1"
     showgrid="false"
     inkscape:pagecheckerboard="true"
     units="px"
     inkscape:window-width="1876"
     inkscape:window-height="1006"
     inkscape:window-x="1940"
     inkscape:window-y="50"
     inkscape:window-maximized="0" />
  <metadata
     id="metadata879">
    <rdf:RDF>
      <cc:Work
         rdf:about="">
        <dc:format>image/svg+xml</dc:format>
        <dc:type
           rdf:resource="http://purl.org/dc/dcmitype/StillImage" />
        <dc:title></dc:title>
      </cc:Work>
    </rdf:RDF>
  </metadata>
  <g
     inkscape:label="Layer 1"
     inkscape:groupmode="layer"
     id="layer1"
     transform="translate(0,-164.70832)">
    <g
       transform="matrix(0.29780831,0,0,0.29780831,24.102437,181.80264)"
       id="layer1-6"
       inkscape:label="Layer 1">
      <rect
         style="fill:#607d8b;fill-opacity:1;stroke:none;stroke-width:132.47488403;stroke-miterlimit:4;stroke-dasharray:132.47488203, 132.47488203;stroke-dashoffset:76.9756012;stroke-opacity:1"
         id="rect5235"
         width="909.75745"
         height="444.2175"
         x="-80.932709"
         y="-57.400406" />
      <circle
         r="102.61082"
         style="opacity:1;vector-effect:none;fill:#ffffff;fill-opacity:1;stroke:#607d8b;stroke-width:7.9375;stroke-linecap:butt;stroke-linejoin:miter;stroke-miterlimit:4;stroke-dasharray:none;stroke-dashoffset:0;stroke-opacity:1"
         cy="164.70833"
         cx="91.923378"
         id="path3713-4" />
      <path
         inkscape:transform-center-x="-25.546976"
         inkscape:transform-center-y="-25.517874"
         sodipodi:nodetypes="ccccc"
         inkscape:connector-curvature="0"
         id="path4870"
         d="m 87.765635,160.55058 4.15763,4.15784 4.15784,4.15763 52.813435,-61.07636 z"
         style="fill:#607d8b;fill-opacity:1;stroke:none;stroke-width:0.26458332px;stroke-linecap:butt;stroke-linejoin:miter;stroke-opacity:1" />
      <path
         inkscape:transform-center-y="40.264033"
         sodipodi:nodetypes="ccccc"
         inkscape:connector-curvature="0"
         id="path4870-1"
         d="m 96.081105,164.70831 -4.15772,-1.7e-4 -4.15775,1.7e-4 4.15774,36.34681 z"
         style="fill:#607d8b;fill-opacity:1;stroke:none;stroke-width:0.26458332px;stroke-linecap:butt;stroke-linejoin:miter;stroke-opacity:1" />
      <circle
         r="8.3154764"
         cy="164.70831"
         cx="91.923378"
         id="path4570"
         style="opacity:1;vector-effect:none;fill:#607d8b;fill-opacity:1;stroke:none;stroke-width:6.31844759;stroke-linecap:butt;stroke-linejoin:miter;stroke-miterlimit:4;stroke-dasharray:6.318448, 6.318448;stroke-dashoffset:0;stroke-opacity:1" />
      <circle
         r="79.036583"
         style="opacity:1;vector-effect:none;fill:none;fill-opacity:1;stroke:#607d8b;stroke-width:9.01170826;stroke-linecap:butt;stroke-linejoin:miter;stroke-miterlimit:4;stroke-dasharray:9.0117087, 9.0117087;stroke-dashoffset:20.3664608;stroke-opacity:1"
         cy="164.70833"
         cx="91.923378"
         id="path3713-4-6" />
      <text
         xml:space="preserve"
         style="font-style:normal;font-weight:normal;font-size:35.53739929px;line-height:1.25;font-family:sans-serif;letter-spacing:0px;word-spacing:0px;fill:#000000;fill-opacity:1;stroke:none;stroke-width:0.88843501"
         x="238.52425"
         y="196.50461"
         id="text5239"><tspan
           sodipodi:role="line"
           id="tspan5237"
           x="238.52425"
           y="196.50461"
           style="font-size:85.2897644px;fill:#ffffff;stroke-width:0.88843501;-inkscape-font-specification:'Adobe Helvetica';font-family:'Adobe Helvetica';font-weight:normal;font-style:normal;font-stretch:normal;font-variant:normal">Countdowns</tspan></text>
    </g>
  </g>
</svg>
